%YAML 1.1
%TAG !u! tag:unity3d.com,2011:
--- !u!1045 &1
EditorBuildSettings:
  m_ObjectHideFlags: 0
  serializedVersion: 2
  m_Scenes:
  - enabled: 1
    path: Assets/Scenes/Laboratory_Room 1.unity
    guid: 5fb20991d6c2dd74488cc0766960a46e
  m_configObjects: {}
